﻿New MSI P65 Creator 15.6'' 4K UHD Thin Laptop i7-9750H 16GB 512GB SSD RTX 2060,New MSI P65 Creator 15.6'' 4K UHD Thin Laptop i7-9750H 16GB 512GB SSD RTX 2060,1
Tree Hut Charcoal Detoxifying Body Cleanser 9 Fl. Oz. NEW w/Shea Butter + Ginger,"Apple iPhone 11 Pro Max (64GB, Midnight Green) [Carrier Locked] + Carrier Subscription [Cricket Wireless]",0
"Apple iPhone 11 Pro Max (64GB, Midnight Green) [Carrier Locked] + Carrier Subscription [Cricket Wireless]",Apple iPhone 11 Pro Max Midnight Green 64GB Renwed,0
Apple iPhone 11 Pro Max Midnight Green 64GB Model A2161,Apple iPhone 11 Pro Max Midnight Green 64GB,1
"MSI GL65 Leopard 10SFK-062 15.6"" FHD 144Hz 3ms Thin Bezel Gaming Laptop Intel Core i7-10750H RTX2070 16GB 512GB NVMe SSD Win 10","MSI GL65 Leopard 10SFK-062 15.6"" FHD 144Hz 3ms Thin Bezel Gaming Laptop Intel...",1
"MSI GL65: Core i7-10750H, RTX 2070, 15.6"" Full HD 144Hz, 16GB RAM, 512GB SSD","MSI GL65 Leopard 10SFK-062 15.6"" FHD 144Hz 3ms Thin Bezel Gaming Laptop Intel Core i7-10750H RTX2070 16GB 512GB NVMe SSD Win 10",1
"MSI GF63 Thin 9SC-066 15.6"" Gaming Laptop, Thin Bezel, Intel Core i7-9750H, NVIDIA GeForce GTX1650, 16GB, 512GB NVMe SSD","MSI GL65 Leopard 10SFK-062 15.6"" FHD 144Hz 3ms Thin Bezel Gaming Laptop Intel Core i7-10750H RTX2070 16GB 512GB NVMe SSD Win 10",0
"Tree Hut Tahitian Vanilla Bean Shea Sugar Scrub, 18oz, Ultra Hydrating and Exfoliating Scrub for Nourishing Essential Body Care",Tree Hut Tahitian Vanilla Bean Shea Sugar Scrub 18oz Ultra Hydrating and Exfo...,1
Tree Hut Shea Sugar Scrub - Lychee & Plum - 18 Oz. - NEW,"Tree Hut Tahitian Vanilla Bean Shea Sugar Scrub, 18oz, Ultra Hydrating and Exfoliating Scrub for Nourishing Essential Body Care",0
Popping Candies Kosher Badatz Israel. Free Shipping! 40 Pcs!,10 X Elite Milk Chocolate with Popping Candy (Pop Rocks) Kosher Israel Para Cow,0
NEW STAR WARS Shirt Retro Movie Classic Poster 1977 T-Shirt Vintage Shirt Top,Happy Shole Society Vintage 1977 Funny T-Shirt Probably The Worst Year Ever 1977 Vintage Style - Unisex Humor T Shirt,0
PS5 RAFFLE 500gb read desciption,PS5 Slim 500gb,0
Asus Chrome C300M Norebook PC with Power cable,ASUS Chromebook C300SA 13.3 Inch,0
Outray Vintage Retro Classic Half Frame Horn Rimmed Clear Lens Glasses,Outray Vintage Retro Classic Half Frame Horn Rimmed Clear Lens Glasses,1
Sexy Anime Lewd Ahegao Hentai Waifu Girl Vinyl Sticker Decal Gag Gift,Sexy Anime Lewd Ahegao Hentai Waifu Girl Gag Gift,1
Microsoft surface pro 7 tablet and detach' keyboard,Microsoft surface pro 6 tablet and detach' keyboard,0
Iphone 11 Pro Max Red Case Multicolered,Iphone 11 Pro Max Red,0
HP GK1100 Gaming Gear Combo Keyboard Mouse Set Led Back Light Computers Mice_VUU,HP GK1100 Gaming Gear Combo Keyboard Mouse Set Led Back Light Computers_amga,1
BTS MAP OF THE SOUL OFFICIAL LIGHT STICK SPECIAL EDITION photocard army bomb,BTS Official Lightstick Map of The Soul Special Edition (incl. One Random BTS Transparent Sticker),1
The Last of Us Part II - PlayStation 4,"The Last of Us Part II -- Special Edition (Sony PlayStation 4, 2020)",1
Chanel Python Ultimate Stitch Beige Quilted Shoulder Bag,Fawziya Soccer Ball Crystal Clutch Purses Handbags For Women Bags,0
Chanel Python Ultimate Stitch Beige Quilted Shoulder Bag for Men,Chanel Python Ultimate Stitch Beige Quilted Shoulder Bag for Women,1
Vietnam Coffee Cup 18oz from original brand,Brazil Coffe Cup 18oz from original brand,0
"Funko Pop! Avengers Endgame: I Am Iron Man Glow-in-The-Dark Deluxe Vinyl Figure, Multicolored",Funko Pop Avengers Endgame: I Am Iron Man Glow-in-The-Dark Deluxe Vinyl Figure,1
Panasonic Lumix DMC-GH5 Mirrorless Micro Four Thirds Digital Camera Body,Panasonic Lumix DCM-GF10 Mirrorless Micro Four Thirds Digital Camera Body,0
La Blanca Women's Island Goddess Wrap Underwire Push Up Bikini Swimsuit Top,La Blanca Women's Wrap Underwire Push Up Bikini Swimsuit Top,1
Samsung Galaxy Note10 SM-N970U - 256GB - Aura White (T-Mobile) (Single SIM),"Samsung Galaxy Note 9, 128GB, Lavender Purple - Fully Unlocked (Renewed)",0
Tactical Molle Pouch Handbags Belt Waist Backpack Military Fanny School bag Pack,"5.11 Tactical Rush Moab 6 Sling Pack Messenger Bag, Water-Resistant, Customizable Sling Bag, Style 56963",0
"Vdealen Speed Cube Set, Includes 2x2 3x3 Stickerless Magic Cube Puzzle","Vdealen Speed Cube Set, Includes 2x2 3x3 Stickerless Magic Cube Puzzle",1
Yugioh - Blue-Eyes Chaos MAX Dragon - MVP1-ENS04 - 1st Edition - Secret - Mint,Blue-Eyes Alternative Ultimate Dragon - TN19-EN001 - Prismatic Secret Rare - Limited Edition,0
Outdoor Camping Sleeping Blanket Quilt Office Mat Pad Mattress Bag Orange,Coleman Big Basin 15 Big and Tall Adult Sleeping Bag,0
New in Sealed Box LG G8 ThinQ G820UM1 AT&T 128GB Android Pie Unlocked Smartphone,AT&T Wireless LG G8 ThinQ - 128GB - Aurora Black - LM-G820UMA (Renewed),1
Bluetooth 5.0 Wireless Headphones TWS Earphones Mini In-Ear Pods For IOS Android,TOZO T10 Bluetooth 5.0 Wireless Earbuds with Wireless Charging Case IPX8 Waterproof TWS Stereo Headphones in Ear Built in Mic Headset Premium Sound with Deep Bass for Sport Black,0
Apple AirPods with Wired Charging Case,Apple AirPods with Wired Charging Case (2nd Generation),1
Vinfast Press Kit Paris 2018 Vietnam BMW & Pininfarina Press Kit,"Milwaukee 2773-22 M18 Force Logic 1/2"" - 2"" Press Tool Kit (6 Jaws Included)",0
"Singing Machine SMM-205 Unidirectional Dynamic Microphone with 10 Ft. Cord,Black","Singing Machine SMM-205 Unidirectional Dynamic Microphone with 10 Ft. Cord,Black",1
10 Speed Mini Vibrator Battery Powered G-Spot Vibrating Massager Sexy Toy Well,Vibrating Maxi Wanachi Waterproof Massager - Pink,0
Hao Hao Mi Tom Chua Cay (Hot Sour Shrimp Flavor Noodle) - 2.7oz [Pack of 30],UK (30 x 77g) Vietnamese Hao Hao Acecook hot sour shrimp instant noodles mi tom,1
12pcs Rainbow Kids Childrens Washable Sidewalk Chalk Plastic Tub,"Chalk City Sidewalk Chalk, 136 Pieces, Non-Toxic Jumbo Washable Outdoor Chalk, Bulk Kids Sidewalk Art Set",0
SanDisk Ultra 128GB microSDXC UHS-I card with Adapter - 100MB/s U1 A1 - SDSQUAR-128G-GN6MA,Sandisk Ultra 128GB Micro SDXC UHS-I Card with Adapter -  100MB/s U1 A1 - SDS...,1
256GB RAM - 4x NVIDIA Tesla V100 GPU Rendering Server for Solidworks,PNY NVIDIA Quadro RTX 4000 - The World First Ray Tracing GPU,0
Corsair Vengeance LPX 16GB (2x8GB) DDR4 DRAM 3000MHz C15 Desktop Memory Kit - Black (CMK16GX4M2B3000C15),Corsair Vengeance LPX 16gb 2x8GB DDR4 Dram 3000Mhz C15 Desktop Memory Kit Black,1
Roadmaster Granite Peak Men's Mountain Bike - 26-inch wheels - Black,"Roadmaster - 26 Inches Granite Peak Men's Mountain Bike, Black/Blue",1
Air Jordan 724813-600: Big Kids Future Low Gym Red/Tour Yellow Sneakers (6.5 M US Big Kid),Air Jordan Future Low BG Gym Red Tour Yellow White 724813 600 GS Kids Shoes,1
Apprentice Illusion Magician - LED6-EN007 - Super Rare - 1st Edition,LED6-EN007 Apprentice Illusion Magician 1st Edition Super Rare Card YuGiOh TCG,1
Apple iPhone 11 Pro Max - 256GB - Midnight Green (Unlocked) A2161 (CDMA + GSM),"Apple iPhone 11 Pro Max, 256GB, Midnight Green, Fully Unlocked (Renewed)",1
Apple iPhone 11 Pro 64/256/512GB Green Space Gray Silver Gold GSM Unlocked,"Apple iPhone 11 Pro Max, 256GB, Space Gray - Fully Unlocked (Renewed)",0
Apple iPhone 11 Pro - 256GB - Gold (Unlocked) A2215 (CDMA + GSM),"Apple iPhone 11 Pro Max, 256GB, Fully Unlocked - Gold (Renewed)",1
24K iPhone 11 Pro Max 512Gb Gold Plated Unlocked Brand New GSM CDMA,"Apple iPhone Xs Max, 512GB, Space Gray - Fully Unlocked (Renewed)",0
Apple iPhone 11 Pro Max - 256GB - Midnight Green (Unlocked) Used,"Apple iPhone 11 Pro Max, 256GB, Midnight Green, Fully Unlocked (Renewed)",1
Apple iPhone XS Max - 64 GB - GSM+CDMA Unlocked - Silver,"Apple iPhone X, 64GB, Silver - Fully Unlocked (Renewed)",1
iPhone XS Max GSM 512GB Space Gray UNLOCKED - Fair,"Apple Iphone XS Max, 512GB, Silver - Fully Unlocked (Renewed)",1
iPhone XS Max - 64GB - Silver (Unlocked) A1921,"Apple iPhone XS, 64GB, Silver - Fully Unlocked (Renewed)",0
Apple iPhone 7 32GB 128GB 256GB Unlocked Smartphone GSM All Colors,"Apple iPhone 7 a1778, GSM Unlocked, 32GB (Renewed)",0
Apple iPhone 7 128GB Black UNLOCKED A1778 GSM Orignial Box Accerssories FastShip,"Apple iPhone 7, 128GB, Red - For AT&T / T-Mobile (Renewed)",0
Apple iPhone 7 - 128GB - Gold (Unlocked) A1778 (GSM),"Apple iPhone 7 Plus, 128GB, Gold - Fully Unlocked (Renewed)",1
Apple iPhone 7 - 32GB - Silver (Unlocked) A1778 (GSM),"Apple iPhone 7 a1778, GSM Unlocked, 32GB (Renewed)",1
"Apple iPhone XR, 128GB, Black - Fully Unlocked (Renewed)",Apple iPhone XR Unlocked SIM Free Smartphone - 64GB 128GB 256GB - All Colours,0
Apple iPhone 8 256GB Unlocked GSM Phone - Silver (Renewed),Apple iPhone 8 - 256GB - Silver (Unlocked) A1863 (CDMA + GSM) (AU Stock),0
Apple iPhone 7 a1778 128GB Smartphone at&T Unlocked (Renewed),Apple iPhone 7 (PRODUCT)RED - 128GB - (Unlocked) A1778 (GSM),1
Apple iPhone X 256GB Mobile Smart iOS phone Silver Unlocked A1901 B Grade,"Apple iPhone X, 256GB, Silver - For AT&T / T-Mobile (Renewed)",0
Apple iPhone X - 64GB - Space Gray (AT&T) A1901 (GSM),"Apple iPhone X, 64GB, Space Gray - For AT&T / T-Mobile (Renewed)",1
ASUS ZenBook 13 Ultra Slim Laptop,Asus ZenBook 13 Ultra-Slim Laptop,1
"ASUS VivoBook 15 Thin and Light Laptop, 15.6” FHD Display","ASUS VivoBook 15 Thin and Light Laptop, 15.6” FHD Display",1
"ASUS ZenBook 15 Laptop, 15.6” UHD 4K NanoEdge Display",ASUS ZenBook 15 Laptop 15.6” UHD 4K NanoEdge Bezel Display,0
ASUS Chromebook Flip C434 2-In-1 Laptop,"14"" Full HD Touchscreen 4-Way NanoEdge	ASUS Chromebook Flip C434 2-in-1 Laptop 14"" Touchscreen Full HD 4-Way NanoEdge",0
"Asus TUF FX505DT Gaming Laptop, 15.6” 120Hz Full HD","Asus TUF FX505DT-AH51 Gaming Laptop, 15.6” 120Hz Full HD, AMD Ryzen 5 R5-3550H",0
ASUS ROG Maximus XII Hero Z490 (WiFi 6) LGA 1200 (Intel 10th Gen) ATX Gaming,ASUS ROG Maximus XII Hero Z490 WiFi 6 LGA 1200 Intel 10th Gen ATX Gaming,1
"ASUS Chromebook-Laptop- 11.6"" Ruggedized and Spill Resistant Design-with 180 Degree","ASUS Chromebook-Laptop- 11.6"" Ruggedized and Spill Resistant Design-with 180 Deg",0
"ASUS VivoBook L203MA Ultra-Thin Laptop, 11.6” HD, Intel Celeron N4000 Processor",ASUS VivoBook L203MA Ultra-Thin Laptop 11.6” HD Intel Celeron N4000 Processor,1
ROG Zephyrus G15 (2020) Ultra Slim Gaming Laptop,ROG Zephyrus G15 (2020) Ultra Slim Gaming Laptop,1
2020 ASUS VivoBook 15 15.6 Inch FHD 1080P Laptop,2020 ASUS VivoBook 15 15.6 Inch FHD 1080P Laptop,1
"ASUS ZenBook 14 Ultra Thin and Light Laptop, 4-Way NanoEdge 14” FHD, Intel Core i5-10210U, 8GB RAM, 512GB PCIe NVMe SSD, Wi-Fi 5, Windows 10 Home","ASUS ZenBook 14 Ultra Thin and Light Laptop, 4-Way NanoEdge 14” FHD",1
"ASUS ImagineBook 14"" FHD LED-Backlit Laptop, Intel Core M3-8100Y Up to 3.4GHz",2019 ASUS ImagineBook MJ401TA Laptop Computer Intel Core m3-8100Y up to 3.4GHz,0
ASUS TUF Gaming 3 AMD Radeon RX 5600XT OC Edition Gaming Graphics Card,ASUS TUF Gaming 3 AMD Radeon RX 5600XT OC Edition Gaming Graphics Card,1
Asus ZenBook Pro Duo UX581 15.6” 4K UHD NanoEdge Bezel Touch,"Asus ZenBook i9 Pro Duo UX581 15.6"" 4K UHD NanoEdge Bezel Touch",0
"CyberpowerPC Tracer III Slim VR GT415SVR100 15.6"" Gaming Notebook","CyberpowerPC Tracer III Slim VR GT415SVR100 15.6"" Gaming Notebook",1
"ASUS TUF Gaming A15 Gaming Laptop, 15.6” 144Hz Full HD IPS-Type, AMD Ryzen 7 4800H","ASUS TUF Gaming Laptop - 15.6"" 144 Hz FHD IPS-Type - AMD Ryzen 7 R7-3750H - GeFo",0
"Acer Aspire 5 Slim Laptop, 15.6 inches Full HD IPS Display","Acer Aspire 5 Slim Laptop, 15.6 inches Full HD IPS Display",1
Mountain Warehouse Whistler Kids Snow Boots,Kids Black Whistler Snow Boots UK 1 EU 33 JS180 PP 02,0
EMU Australia Women's Stinger Hi,EMU Australia Women's Stinger Hi,1
Under Armour Men's Charged Assert 8 Running Shoe,Under Armour Charged Assert 8 Men Size 12 Running Shoes Gray Blue 3021952 NWOT,0
adidas Women's Grand Court Sneaker,adidas Grand Court Sneakers Casual - White - Womens,0
Skechers Men's Afterburn Memory-Foam Lace-up Sneaker,Skechers Men's Afterburn Memory Foam Lace-Up Sneaker,1
Skechers for Work Men's Felton Slip Resistant Relaxed-Fit Work Shoe,Skechers for Work Men's Felton Slip Resistant Relaxed-Fit Shoe,1
FitKicks Original Women's Foldable Active Lifestyle Minimalist Footwear Barefoot Yoga Sporty Water Shoes,FitKicks Original Women's Foldable Active Lifestyle Minimalist Footwear Barefoot,1
ASICS Men's Gel-Venture 7 Trail Running Shoes,"Men's ASICS, GEL-Venture 7 Trail Running Shoe - Extra W",0
Skechers BOBS Women's Bobs Plush-Peace & Love,Skechers BOBS Women's Plush-Peace & Love,1
Brooks Womens Ghost 12 Running Shoe,NEW IN BOX BROOKS GHOST 12 WOMAN'S RUNNING SHOES 9 B,0
Skechers Men's Cessnock Food Service Shoe,Skechers Men's Cessnock Food Service Shoe,1
adidas Kids' Grand Court Sneaker,ADIDAS Kids Boys Girls Grand Court K Tennis Sneakers White/Blk Size 3.5 New Box,0
PUMA Men's Tazon 6 FM Running Shoe,Puma Tazon 6 FM 18987323 Mens Gray Low Top Lace Up Athletic Running Shoes 7.5,0
adidas Men's Daily 2.0 Sneaker,New Adidas Daily 2.0 Men's Size 11 Low Top Shoes Sneakers F36629 Grey Black,0
STQ Slip On Breathe Mesh Walking Shoes Women Fashion Sneakers Comfort Wedge Platform Loafers,Stq Slip On Breathe Mesh Walking Shoes Women Fashion Sneakers Comfort Wedge Plat,1
STQ Women's Running Shoes Breathable Air Cushion Sneakers,STQ Women's Running Shoes Breathable Air Cushion Sneakers,1
TUBYGO Running Shoes for Mens Womens Breathable Air Cushion Gym Lightweight Tennis Sport Walking Athletic Casual Footwear Sneakers,TUBYGO Running Shoes for Mens Womens Breathable Air Cushion Gym Lightweight Tenn,0
Dr. Scholl's WORK Massaging Gel Advanced Insoles (Men's 8-14),Dr. Scholl's WORK Massaging Gel Advanced Insoles (Men's 8-14),1
Merrell Men's Moab 2 Vent Hiking Shoe,Merrell Men's Moab 2 Vent Hiking Shoe,1
adidas Men's Ultraboost 20 Sneaker,Man's Sneakers & Athletic Shoes adidas Running Ultraboost 20 Primeblue,0
Brooks Mens Ghost 12 Running Shoe,Brooks Mens Ghost 12 Running Shoe,1
Skechers Women's Ghenter Srelt Work Shoe,Skechers Women's Ghenter Srelt Work Shoe,1
CROC Classic Clog Water Comfortable Slip on Shoes,Crocs Classic Clog Comfortable Slip on Casual Water Shoe,1
BMTD Coil Trimming Cutting Tool for Prebuilt Wire Coil Ruler Trimmer Building（Blue）,DIY E-Vape Heating Wire Coil Trimmer Clipping Trimming Cutting Tool for RDTA Kit,0
"Vape Carrying Case for Travels - Secure, Organized, Premium Vape Bag",Smell Proof Back Pack Odorless Travel BackPack Bag w/ Lock Carry On Luggage Case,0
Galaxy Black 3D Carbon Fiber Protective Air Release Vinyl Decal Wrap for Smok Stick Prince Vape Box Mod by Necro Wraps,3D 4D 5D 6D Glossy Carbon Fiber Wrap Vinyl Decal Film Sticker Air Release New,0
Graco Extend2Fit Convertible Car Seat Ride Rear Facing Longer with Extend2Fit,Graco Convertible Car Seat Ride Rear Facing Longer With Extend2Fit,1
"Joe's USA Men's Long Sleeve Heavyweight Cotton T-Shirts in Regular, Big & Tall",PRO CLUB THERMAL T SHIRTS PROCLUB MEN HEAVYWEIGHT LONG SLEEVE SHIRT BIG AND TALL,0
Joe's USA Mens Big & Tall Heavyweight 100% Cotton Short Sleeve T-Shirt,PROCLUB PRO CLUB MENS PLAIN T SHIRT HEAVYWEIGHT SHIRTS SHORT SLEEVE TEE BIG TALL,0
RCA WHP141B 900MHZ Wireless Stereo Headphones,RCA WHP141B 900MHz Wireless Stereo Headphones,1
Sony MDRZX110/BLK ZX Series Stereo Headphones (Black),Sony MDRZX110/BLK ZX Series Stereo Headphones MDRZX110 MDR-ZX110 Black,1
COWIN E7 Active Noise Cancelling Headphones Bluetooth,Cowin E7 Active Noise Cancelling Wireless Bluetooth Headphones,1
"AmazonBasics In-Ear Wired Headphones, Earbuds with Microphone, Black",Marsno M1943 Earbuds Audio In-Ear Headphones With Microphone Noise Isolating In,0
Bose SoundLink Around Ear Wireless Headphones II,Bose Soundlink Around-Ear Wireless Headphones II,1
Audio-Technica ATH-M20x Professional Studio Monitor Headphones,Audio-Technica ATH-M20x Professional Studio Monitor Headphones Deluxe Bundle,1
"Mpow 059 Bluetooth Headphones Over Ear, Hi-Fi Stereo Wireless Headset, Foldable, Soft Memory-Protein Earmuffs, w/Built-in Mic Wired Mode","Mpow Wireless Bluetooth Headphones Over Ear, Hi-Fi Stereo Headset, Built-in Mic",0
Sony Noise Cancelling Headphones WH1000XM3: Wireless Bluetooth Over the Ear Headset with Mic for phone-call and Alexa voice control - Industry Leading Active Noise Cancellation,Sony WH-1000XM3 Wireless Noise Canceling Headphones,0
Sony MDR7506 Professional Large Diaphragm Headphone,Sony MDR7506 Professional Large Diaphragm Headphone Black With Tracking,1
Audio-Technica ATH-M30x Professional Studio Monitor Headphones,Audio-Technica ATH-M30x Professional Studio Monitor Headphones,1
Panasonic Headphones RP-HT161-K Full-Sized Over-the-Ear Lightweight Long-Corded,Panasonic Headphones RP-HT161-K Full-Sized Over-the-Ear Lightweight Long-Corded,1
"Dudios Zeus Ace TWS Earbuds, Bluetooth 5.0 Wireless Headphones Stereo in-Ear Mini Earphone","Dudios Zeus Ace TWS Earbuds, Bluetooth 5.0 Wireless Headphones Stereo in-Ear",1
"Over Ear Bluetooth Headphones, WXY Girls Wireless Headset V5.0 with Built-in Mic, Micro TF, FM Radio, Soft Earmuffs & Lightweight for iPhone/Samsung/PC/TV/Travel","Over Ear Bluetooth Headphones, WXY Girls Wireless Headset V5.0 with Built... New",0
6PCS 50ml 2oz BPA Free Transparent Plastic Flip Cap Bottle,Vial Container Jar Pot For Comestic Makeup Samples Lotion Emulsion Liquid Emollient Water Shower Gel Abc Comestic,0
"Toiletry Bag, VAGREEZ Upgraded Hanging Travel Toiletry Organizer Kit","Toiletry Bag, VAGREEZ Hanging Travel Toiletry Organizer Kit gray",1
Cinlla Mini Size Flawless Wedding Makeup Blender Comestic Sponge Puff,CAETLE Beauty Flawless Makeup Blender Comestic Sponge Puff (2),0
Hanging Toiletry Bag - Large Capacity Travel Bag for Women and Men - Toiletry Kit,Large Capacity Men Travel Toiletry Kit Wash Bag Waterproof Cosmetic Bags Holder,0
Hello Glow: 150+ Easy Natural Beauty Recipes for a Fresh New You,NEW - Hello Glow: 150+ Easy Natural Beauty Recipes for a Fresh New You,1
BH Cosmetics Face Essential 5 Piece Brush Set,Genuine BH Cosmetics Face Essential 5 Piece Brush Set! Cruelty Free,0
suggee Mini Makeup bag Travel Small Cosmetic Bag Beauty Case for Women,suggee Mini Makeup bag Travel Small Cosmetic Bag Beauty Case for Women,1
"Real Techniques Miracle Complexion Sponge Makeup Blender, Set of 6 Assorted Beauty Sponges",Real Techniques Mini MC Beauty Sponge (Set of 4) Latex-free Makeup Blender,1
LeapFrog Scoop & Learn Ice Cream Cart,LeapFrog Scoop and Learn Ice Cream Cart,1
"Disney Frozen Fire Spirit's Snowy Snack, Salamander Toy with Lights",Disney Frozen 2 Fire Spirit's Snowy Snack Salamander Toy with Lights,1
BIRANCO. Flower Garden Building Toys - Build a Bouquet Floral Arrangement,"Playset for Toddlers and Kids Age 3, 4, 5, 6 Year Old Girls Pretend Gardening Gifts (120 PCS)	ABC Toy",0
HOMILY Flower Garden Building Toys Girl Gifts Flower Gardening Preschool Craft Kits Toddler Toys,Flower Garden Building STEM Toys Gardening Pretend Gift For Girls Kids Toy Large,0
"Delta Children Plastic Toddler Bed, Disney/Pixar Toy Story 4","Delta Children Plastic Toddler Bed, Disney/Pixar Toy Story 4",1
Husqvarna 522771104 Kids Plastic Toy Chainsaw,Husqvarna 522771104 Kids Plastic Toy Chainsaw,1
"My First Crayola Double Doodle Board, Drawing Tablet, Toddler Toy","My First Crayola Double Doodle Board, Drawing Tablet, Non-Toxic Toy For Toddlers",0
K’NEX K-Force Battle Bow Build and Blast Set – 165 Pieces – Ages 8+ Engineering Education Toy - New Version,K’NEX K-FORCE Battle Bow Build and Blast Set 165 Pieces Ages 8+,0
SpinForce 360,"NEXEN 968170 GUIDE RAIL BRAKES 100 PSI LINEAR FORCE: 360LBS, NEW #161880",0
"Crayola Color Wonder Mess Free Paintbrush Pens & Paper, Painting for Kids","Crayola Color Wonder Mess Free Paintbrush Pens and Paper, Painting for Kids",1
Kindi Kids Snack Time Friends Pre School 10 inch Doll Marsha Mello,Kindi Kids Snack Time Friends Pre School 10 inch Doll Marsha Mello,1
Blige SMTF Cute Animal Soft Baby Socks Toys Wrist Rattles and Foot Finders for Fun Butterflies and Lady bugs Set 4 pcs,Baby Socks Toys Wrist Rattles Foot Finders for Fun Butterflies and bugs Set 4Pcs,0
Ravensburger Gravitrax Starter Set Marble Run & STEM Toy For Kids Age 8 & Up,Ravensburger Gravitrax Starter Set Marble Run & STEM Toy For Kids Age 8 & Up,1
